﻿2017-11-05 00:00:00						0
2017-11-05 00:30:00		1				
2017-11-05 00:45:00		2				
2017-11-05 01:00:00		3				3.1
2017-11-05 01:15:00		4				
2017-11-05 01:30:00		5				
2017-11-05 01:45:00		6				
2017-11-05 01:00:00						3.2
2017-11-05 02:00:00		7				7
2017-11-05 03:00:00						8
2017-11-06 01:00:00		9				9
